R/RStudio (Part 1). Data wrangling, visualization & statistial analysis (CSB chap 9 + iris)
…
## Rows: 114 Columns: 3
## -- Column specification --------------------------------------------------------
## Delimiter: "\t"
## chr (1): Herd
## dbl (2): Year, Pop_Size
## 
## i Use `spec()` to retrieve the full column specification for this data.
## i Specify the column types or set `show_col_types = FALSE` to quiet this message.

9.2.2 Tibbles

popsize # shows the data structure of the file popsize (tibble)

## # A tibble: 114 x 3
##    Herd   Year Pop_Size
##    <chr> <dbl>    <dbl>
##  1 WAH    1970   242000
##  2 WAH    1976    75000
##  3 WAH    1978   107000
##  4 WAH    1980   138000
##  5 WAH    1982   217863
##  6 WAH    1986   229000
##  7 WAH    1988   343000
##  8 WAH    1990   417000
##  9 WAH    1993   478822
## 10 WAH    1996   463000
## # ... with 104 more rows
…
9.3.1 Subsetting Data

# extract only specific columns by name (e.g., Herd and NDVI_May)
select(ndvi, Herd, NDVI_May) 

## # A tibble: 360 x 2
##    Herd  NDVI_May
##    <chr>    <dbl>
##  1 BAT      0.214
##  2 BAT      0.204
##  3 BAT      0.246
##  4 BAT      0.244
##  5 BAT      0.200
##  6 BAT      0.224
##  7 BAT      0.233
##  8 BAT      0.234
##  9 BAT      0.218
## 10 BAT      0.287
## # ... with 350 more rows

# use a colon to include all columns in between
select(ndvi, Herd:NDVI_May)

## # A tibble: 360 x 3
##    Herd   Year NDVI_May
##    <chr> <dbl>    <dbl>
##  1 BAT    1982    0.214
##  2 BAT    1983    0.204
##  3 BAT    1984    0.246
##  4 BAT    1985    0.244
##  5 BAT    1986    0.200
##  6 BAT    1987    0.224
##  7 BAT    1988    0.233
##  8 BAT    1989    0.234
##  9 BAT    1990    0.218
## 10 BAT    1991    0.287
## # ... with 350 more rows

# use a minus sign to exclude specific columns
select(ndvi, -Herd, -Year)

## # A tibble: 360 x 2
##    NDVI_May NDVI_June_August
##       <dbl>            <dbl>
##  1    0.214            0.372
##  2    0.204           -0.998
##  3    0.246            1.59 
##  4    0.244            0.642
##  5    0.200           -0.363
##  6    0.224            0.746
##  7    0.233            2.44 
##  8    0.234            2.01 
##  9    0.218            0.631
## 10    0.287            2.93 
## # ... with 350 more rows

# you can combine the two features
select(ndvi, -(Year:NDVI_May))

## # A tibble: 360 x 2
##    Herd  NDVI_June_August
##    <chr>            <dbl>
##  1 BAT              0.372
##  2 BAT             -0.998
##  3 BAT              1.59 
##  4 BAT              0.642
##  5 BAT             -0.363
##  6 BAT              0.746
##  7 BAT              2.44 
##  8 BAT              2.01 
##  9 BAT              0.631
## 10 BAT              2.93 
## # ... with 350 more rows
…
# select rows for years 1970 to 1980
filter(popsize, Year >= 1970, Year <= 1980)

## # A tibble: 23 x 3
##    Herd   Year Pop_Size
##    <chr> <dbl>    <dbl>
##  1 WAH    1970   242000
##  2 WAH    1976    75000
##  3 WAH    1978   107000
##  4 WAH    1980   138000
##  5 CAH    1978     5000
##  6 TCH    1978     3500
##  7 PCH    1972    99959
##  8 PCH    1977   105000
##  9 PCH    1979   105683
## 10 BAT    1977   160000
## # ... with 13 more rows
…
# first, take only column Herd
select(popsize, Herd)

## # A tibble: 114 x 1
##    Herd 
##    <chr>
##  1 WAH  
##  2 WAH  
##  3 WAH  
##  4 WAH  
##  5 WAH  
##  6 WAH  
##  7 WAH  
##  8 WAH  
##  9 WAH  
## 10 WAH  
## # ... with 104 more rows
…
Intermezzo 9.1

Extract the unique Years in popsize and order them.

Find the row in ndvi with the largest NDVI_May.

List the three years with the largest Pop_Size for the Herd called
WAH.Perform this operation in two different ways.

9.3.3 Renaming Columns

popsize %>% 
  rename(h = Herd) # rename a column

## # A tibble: 114 x 3
##    h      Year Pop_Size
##    <chr> <dbl>    <dbl>
##  1 WAH    1970   242000
##  2 WAH    1976    75000
##  3 WAH    1978   107000
##  4 WAH    1980   138000
##  5 WAH    1982   217863
##  6 WAH    1986   229000
##  7 WAH    1988   343000
##  8 WAH    1990   417000
##  9 WAH    1993   478822
## 10 WAH    1996   463000
## # ... with 104 more rows
…
To show how you can use mutate (or transmute) on grouped data, we are
going to compute a z-score for the population size of each herd in each
year.

popsize %>% 
  group_by(Herd) %>% 
  mutate(zscore = (Pop_Size - mean(Pop_Size)) / sd(Pop_Size))

## # A tibble: 114 x 4
## # Groups:   Herd [11]
##    Herd   Year Pop_Size zscore
##    <chr> <dbl>    <dbl>  <dbl>
##  1 WAH    1970   242000 -0.495
##  2 WAH    1976    75000 -1.73 
##  3 WAH    1978   107000 -1.49 
##  4 WAH    1980   138000 -1.27 
##  5 WAH    1982   217863 -0.674
##  6 WAH    1986   229000 -0.591
##  7 WAH    1988   343000  0.252
##  8 WAH    1990   417000  0.800
##  9 WAH    1993   478822  1.26 
## 10 WAH    1996   463000  1.14 
## # ... with 104 more rows
…
# read the plumage data set
plum <- read_csv("../scientific/data/Dale2015_data.csv")

## Rows: 5831 Columns: 5
## -- Column specification --------------------------------------------------------
## Delimiter: ","
## chr (3): Scientific_name, English_name, TipLabel
## dbl (2): Female_plumage_score, Male_plumage_score
## 
## i Use `spec()` to retrieve the full column specification for this data.
## i Specify the column types or set `show_col_types = FALSE` to quiet this message.

plum

## # A tibble: 5,831 x 5
##    Scientific_name          English_name             TipLabel    Femal~1 Male_~2
##    <chr>                    <chr>                    <chr>         <dbl>   <dbl>
##  1 Abroscopus albogularis   Rufous-faced Warbler     Abroscopus~    45.8    51.9
##  2 Abroscopus schisticeps   Black-faced Warbler      Abroscopus~    48.9    47.8
##  3 Abroscopus superciliaris Yellow-bellied Warbler   Abroscopus~    43.2    43.6
##  4 Acanthagenys rufogularis Spiny-cheeked Honeyeater Acanthagen~    39.3    39.2
##  5 Acanthidops bairdii      Peg-billed Finch         Acanthidop~    40.6    54.2
##  6 Acanthisitta chloris     Rifleman                 Acanthisit~    48.8    51.1
##  7 Acanthiza apicalis       Inland Thornbill         Acanthiza_~    43.2    44.9
##  8 Acanthiza chrysorrhoa    Yellow-rumped Thornbill  Acanthiza_~    50.1    49.4
##  9 Acanthiza ewingii        Tasmanian Thornbill      Acanthiza_~    40.4    40.3
## 10 Acanthiza inornata       Western Thornbill        Acanthiza_~    43.3    45.4
## # ... with 5,821 more rows, and abbreviated variable names
## #   1: Female_plumage_score, 2: Male_plumage_score
…
